{
  "id": "3",
  "profileId": "1",
  "name": "Name 3",
  "subjects": [
    "Subject 1"
  ],
  "body": {
    "html": "<!DOCTYPE html PUBLIC \"-//W3C//DTD XHTML 1.0 Transitional//EN\" \"http://www.w3.org/TR/xhtml1/DTD/xhtml1-transitional.dtd\">\n<html xmlns=\"http://www.w3.org/1999/xhtml\">\n  <head>\n    <meta content=\"text/html; charset=utf-8\" http-equiv=\"Content-Type\">\n    <meta content=\"width=device-width, initial-scale=1.0\" name=\"viewport\">\n    <meta content=\"IE=edge\" http-equiv=\"X-UA-Compatible\">\n    <meta name=\"editor\" content=\"DRAGANDDROP\">\n    <meta name=\"version\" content=\"1.3.22\">\n  </head>\n  <body style=\"-ms-text-size-adjust: 100%; -webkit-text-size-adjust: none; background: #E8E8E8 none; margin: 0px; padding: 0px; width: 100% !important\" bgcolor=\"#E8E8E8\">\n    <style type=\"text/css\">body {\nwidth: 100% !important; -webkit-text-size-adjust: none; -ms-text-size-adjust: 100%; margin: 0px; padding: 0px;\n}\nimg {\noutline: none; text-decoration: none; border: none;\n}\nbody {\nbackground: #E8E8E8 none;\n}\n@media screen and (max-width: 600px) {\n  *[class].container {\n    width: 100% !important;\n  }\n  *[class].container-padding {\n    width: 100% !important;\n  }\n  [data-block-column=\"column\"] {\n    width: 100% !important; box-sizing: border-box; display: block;\n  }\n  [data-block-column=\"column\"] img {\n    max-width: 100% !important; width: auto !important; height: auto !important;\n  }\n  *[class].hide {\n    display: none !important;\n  }\n}\n@media only screen and (max-width: 480px) {\n  [data-block-panel=\"grid\"] [data-block-column=\"padding\"] {\n    display: block !important; width: 100% !important;\n  }\n  [data-block-column=\"padding\"] {\n    display: none !important;\n  }\n  [data-block-content=\"preview-text\"] {\n    display: block;\n  }\n}\n@media only screen and (max-width: 600px) {\n  [data-block-content=\"social\"] td {\n    line-height: 50px !important;\n  }\n  [data-block-content=\"social-placeholder\"] td {\n    line-height: 50px !important;\n  }\n  [data-block-content=\"social\"] td a img {\n    width: 40px !important; height: 40px !important;\n  }\n  [data-block-content=\"social-placeholder\"] td a img {\n    width: 40px !important; height: 40px !important;\n  }\n}\n</style>\n    <table border=\"0\" cellpadding=\"0\" cellspacing=\"0\" data-block-background=\"background\" data-block-id=\"space\" style=\"background: #E8E8E8 none; line-height: 100%; margin: 0px auto; mso-table-lspace: 0pt; mso-table-rspace: 0pt; padding: 0px; width: 100%\" bgcolor=\"#E8E8E8\" background=\"none\"> <tbody>\n<tr data-block-panel=\"clear\" class=\"hide\" data-block-id=\"block-373630\">\n<td style=\"border-collapse: separate; padding: 0px\">\n<table cellpadding=\"0\" cellspacing=\"0\" border=\"0\" align=\"center\" class=\"container\" width=\"600\" style=\"margin: 0px auto; mso-table-lspace: 0pt; mso-table-rspace: 0pt; width: 600px\">\n<tbody>\n<tr>\n<td style=\"border: 0px solid #000000; border-collapse: separate; padding: 0px\">\n<table cellpadding=\"0\" cellspacing=\"0\" border=\"0\" align=\"center\" width=\"100%\" style=\"margin: 0px auto; mso-table-lspace: 0pt; mso-table-rspace: 0pt\">\n<tbody data-block-body=\"\">\n<tr data-block-row=\"row\" data-block-id=\"block-309003\">\n<td class=\"container-padding\" valign=\"top\" width=\"600\" style=\"background: transparent; border: 0px solid #000000; border-bottom-left-radius: 0px; border-bottom-right-radius: 0px; border-collapse: separate; border-top-left-radius: 0px; border-top-right-radius: 0px; padding: 0px\" bgcolor=\"transparent\">\n<table cellpadding=\"0\" cellspacing=\"0\" border=\"0\" width=\"100%\" style=\"margin: 0px auto; mso-table-lspace: 0pt; mso-table-rspace: 0pt\">\n<tbody>\n<tr>\n<th valign=\"top\" data-block-column=\"column\" data-block-id=\"block-926989\" width=\"600\" style=\"background: transparent; border: 0px solid #000000; border-bottom-left-radius: 0px; border-bottom-right-radius: 0px; border-top-left-radius: 0px; border-top-right-radius: 0px; font-weight: normal; padding: 0px; vertical-align: top\" bgcolor=\"transparent\">\n<table cellpadding=\"0\" cellspacing=\"0\" border=\"0\" width=\"100%\" style=\"margin: 0px auto; mso-table-lspace: 0pt; mso-table-rspace: 0pt\">\n<tbody>\n<tr data-block-content=\"text\" data-block-id=\"block-924405\">\n<td valign=\"top\" style=\"background: transparent; border: 0px solid #000000; border-bottom-left-radius: 0px; border-bottom-right-radius: 0px; border-collapse: separate; border-top-left-radius: 0px; border-top-right-radius: 0px; color: #000001; font-family: Arial, Helvetica, sans-serif; font-size: 13px; font-style: normal; font-weight: normal; line-height: normal; padding: 0px 0px 10px; text-align: left; text-decoration: none\" align=\"left\" bgcolor=\"transparent\">\n<p style=\"color: #000001; font-family: Arial, Helvetica, sans-serif; font-size: 13px; font-style: normal; font-weight: normal; line-height: normal; margin: 0px; padding: 0px; text-align: center; text-decoration: none\" align=\"center\">\n<span style=\"font-size: 10px\">\n<i>\nWrite a pre-header to describe the content of your message</i>\n</span>\n</p>\n<p style=\"color: #000001; font-family: Arial, Helvetica, sans-serif; font-size: 13px; font-style: normal; font-weight: normal; line-height: normal; margin: 0px; padding: 0px; text-align: center; text-decoration: none\" align=\"center\">\n<span style=\"font-size: 10px\">\nHaving problems viewing this email? <a href=\"http://{~customDomain~}/interface/external_view_email.php?{~mailId~}&varId={~mailVariationId~}\" target=\"_blank\" style=\"background: none; border: none; color: #0000ee; font-style: normal; font-weight: normal; text-decoration: underline; word-wrap: break-word\">\nView in browser</a>.\n</span>\n</p>\n</td>\n</tr>\n</tbody>\n</table>\n</th>\n</tr>\n</tbody>\n</table>\n</td>\n</tr>\n</tbody>\n</table>\n</td>\n</tr>\n</tbody>\n</table>\n</td>\n</tr>\n<tr data-block-panel=\"full-width\" data-block-id=\"block-148782\"> <td style=\"background: #ffffff none repeat center; border: 0px solid #000000; border-collapse: separate; padding: 10px\" bgcolor=\"#ffffff\"> <table cellpadding=\"0\" cellspacing=\"0\" border=\"0\" align=\"center\" class=\"container\" width=\"580\" style=\"margin: 0px auto; mso-table-lspace: 0pt; mso-table-rspace: 0pt; width: 600px\"> <tbody> <tr> <td style=\"border-collapse: separate; padding: 0px\"> <table cellpadding=\"0\" cellspacing=\"0\" border=\"0\" align=\"center\" width=\"100%\" style=\"margin: 0px auto; mso-table-lspace: 0pt; mso-table-rspace: 0pt\"> <tbody data-block-body=\"\"> <tr data-block-row=\"row\" data-block-id=\"block-358858\"> <td class=\"container-padding\" valign=\"top\" align=\"center\" width=\"580\" style=\"background: transparent; border: 0px solid #000000; border-bottom-left-radius: 0px; border-bottom-right-radius: 0px; border-collapse: separate; border-top-left-radius: 0px; border-top-right-radius: 0px; padding: 0px\" bgcolor=\"transparent\"> <table cellpadding=\"0\" cellspacing=\"0\" border=\"0\" width=\"100%\" style=\"margin: 0px auto; mso-table-lspace: 0pt; mso-table-rspace: 0pt\"> <tbody>\n<tr>\n<th valign=\"top\" data-block-column=\"column\" data-block-id=\"block-990110\" width=\"265\" style=\"background: transparent; border: 0px solid #000000; border-bottom-left-radius: 0px; border-bottom-right-radius: 0px; border-top-left-radius: 0px; border-top-right-radius: 0px; font-weight: normal; padding: 10px 10px 0px; vertical-align: top\" bgcolor=\"transparent\"> <table cellpadding=\"0\" cellspacing=\"0\" border=\"0\" width=\"100%\" align=\"center\" style=\"margin: 0px auto; mso-table-lspace: 0pt; mso-table-rspace: 0pt\"> <tbody><tr data-block-content=\"image-placeholder\" data-block-id=\"block-175515\"> <td valign=\"top\" style=\"background: #101d29 url('/public/editor/placeholder-image-icon-dcf815f9.png') no-repeat center; border-collapse: separate; max-width: 100%; padding: 50% 0px 0px; width: 100%\" bgcolor=\"#101d29\"></td> </tr></tbody> </table> </th>\n<th data-block-column=\"padding\" width=\"10\" data-block-id=\"block-692830\" style=\"font-size: 1px; height: 10px; line-height: 1px; width: 10px\"> </th>\n<th valign=\"top\" data-block-column=\"column\" data-block-id=\"block-451253\" width=\"265\" style=\"background: transparent; border: 0px solid #000000; border-bottom-left-radius: 0px; border-bottom-right-radius: 0px; border-top-left-radius: 0px; border-top-right-radius: 0px; font-weight: normal; padding: 10px 10px 0px; vertical-align: top\" bgcolor=\"transparent\"> <table cellpadding=\"0\" cellspacing=\"0\" border=\"0\" width=\"100%\" align=\"center\" style=\"margin: 0px auto; mso-table-lspace: 0pt; mso-table-rspace: 0pt\"> <tbody><tr data-block-content=\"spacer\" data-block-id=\"block-860047\" style=\"background: transparent\" bgcolor=\"transparent\"> <td valign=\"top\" style=\"border: 0px solid #000000; border-bottom-left-radius: 0px; border-bottom-right-radius: 0px; border-collapse: separate; border-top-left-radius: 0px; border-top-right-radius: 0px; padding: 0px 0px 10px\"> <table width=\"100%\" cellpadding=\"0\" cellspacing=\"0\" border=\"0\" align=\"center\" style=\"margin: 0px auto; mso-table-lspace: 0pt; mso-table-rspace: 0pt\"> <tbody>\n<tr> <td class=\"spacer-content\" style=\"border-collapse: separate; font-size: 1px; height: 1px; line-height: 1; padding: 10px 0px 0px\"> </td> </tr> <tr> <td class=\"spacer-helper\" style=\"border-collapse: separate; padding: 0px\"> </td> </tr> </tbody>\n</table> </td> </tr></tbody> </table> </th>\n</tr> </tbody>\n</table> </td> </tr>\n</tbody> </table> </td> </tr> </tbody> </table> </td> </tr>\n<tr data-block-panel=\"clear\" data-block-id=\"block-987731\"> <td style=\"border-collapse: separate; padding: 0px\"> <table cellpadding=\"0\" cellspacing=\"0\" border=\"0\" align=\"center\" class=\"container\" width=\"580\" style=\"margin: 0px auto; mso-table-lspace: 0pt; mso-table-rspace: 0pt; width: 600px\"> <tbody> <tr> <td style=\"border: 0px solid #000000; border-collapse: separate; padding: 10px\"> <table cellpadding=\"0\" cellspacing=\"0\" border=\"0\" align=\"center\" width=\"100%\" style=\"margin: 0px auto; mso-table-lspace: 0pt; mso-table-rspace: 0pt\"> <tbody data-block-body=\"\"> <tr data-block-row=\"row\" data-block-id=\"block-830149\"> <td class=\"container-padding\" valign=\"top\" align=\"center\" width=\"580\" style=\"background: transparent; border: 0px solid #000000; border-bottom-left-radius: 0px; border-bottom-right-radius: 0px; border-collapse: separate; border-top-left-radius: 0px; border-top-right-radius: 0px; padding: 0px\" bgcolor=\"transparent\"> <table cellpadding=\"0\" cellspacing=\"0\" border=\"0\" width=\"100%\" style=\"margin: 0px auto; mso-table-lspace: 0pt; mso-table-rspace: 0pt\"> <tbody>\n<tr>\n<th valign=\"top\" data-block-column=\"column\" data-block-id=\"block-737062\" width=\"377\" data-block-column-custom=\"\" style=\"background: transparent; border: 0px solid #000000; border-bottom-left-radius: 0px; border-bottom-right-radius: 0px; border-top-left-radius: 0px; border-top-right-radius: 0px; font-weight: normal; padding: 10px 10px 0px; vertical-align: top\" bgcolor=\"transparent\"> <table cellpadding=\"0\" cellspacing=\"0\" border=\"0\" width=\"100%\" align=\"center\" style=\"margin: 0px auto; mso-table-lspace: 0pt; mso-table-rspace: 0pt\"> <tbody>\n<tr data-block-content=\"image-placeholder\" data-block-id=\"block-125992\"> <td valign=\"top\" style=\"background: #101d29 url('/public/editor/placeholder-image-icon-dcf815f9.png') no-repeat center; border-collapse: separate; max-width: 100%; padding: 50% 0px 0px; width: 100%\" bgcolor=\"#101d29\"></td> </tr>\n<tr data-block-content=\"text\" data-block-id=\"block-835548\"> <td valign=\"top\" style=\"background: transparent; border: 0px solid #000000; border-bottom-left-radius: 0px; border-bottom-right-radius: 0px; border-collapse: separate; border-top-left-radius: 0px; border-top-right-radius: 0px; color: #000001; font-family: Arial, Helvetica, sans-serif; font-size: 13px; font-style: normal; font-weight: normal; line-height: normal; padding: 0px 0px 10px; text-align: left; text-decoration: none\" align=\"left\" bgcolor=\"transparent\">\n          <p style=\"color: #000001; font-family: Arial, Helvetica, sans-serif; font-size: 13px; font-style: normal; font-weight: normal; line-height: normal; margin: 0px; padding: 0px; text-align: left; text-decoration: none\" align=\"left\">Your text goes here. Double click to edit this text.</p>\n<br>\n          <p style=\"color: #000001; font-family: Arial, Helvetica, sans-serif; font-size: 13px; font-style: normal; font-weight: normal; line-height: normal; margin: 0px; padding: 0px; text-align: left; text-decoration: none\" align=\"left\">\n            By highlighting a section of text you are able to apply styles such as \n            <b>bold</b>,\n            <i>italic</i>\n            and\n            <strike>strikethrough</strike>\n          </p>\n</td> </tr>\n<tr data-block-content=\"button\" data-block-id=\"block-878544\"> <td valign=\"top\" style=\"border-collapse: separate; padding: 0px 0px 10px\"> <table align=\"center\" border=\"0\" cellpadding=\"0\" cellspacing=\"0\" width=\"100%\" style=\"margin: 0px auto; mso-table-lspace: 0pt; mso-table-rspace: 0pt\"> <tbody>\n<tr> <td align=\"center\" valign=\"middle\" style=\"background: #505050; border: 1px solid #353535; border-bottom-left-radius: 5px; border-bottom-right-radius: 5px; border-collapse: separate; border-top-left-radius: 5px; border-top-right-radius: 5px; color: #FFFFFE; display: block; font-family: Arial, Helvetica, sans-serif; font-size: 12px; font-style: normal; font-weight: normal; line-height: normal; padding: 10px; text-align: center; text-decoration: none\" bgcolor=\"#505050\"> <a href=\"\" style=\"background: none; border: none; color: #FFFFFE; display: block; font-family: Arial, Helvetica, sans-serif; font-size: 12px; font-style: normal; font-weight: normal; line-height: normal; text-align: center; text-decoration: none; word-wrap: break-word\"><span>More info</span></a> </td> </tr> </tbody>\n</table> </td> </tr>\n<tr data-block-content=\"divider\" data-block-id=\"block-361982\" style=\"background: transparent\" bgcolor=\"transparent\"> <td valign=\"top\" style=\"border: 0px solid #000000; border-bottom-left-radius: 0px; border-bottom-right-radius: 0px; border-collapse: separate; border-top-left-radius: 0px; border-top-right-radius: 0px; padding: 0px 0px 10px\"> <table width=\"100%\" cellpadding=\"0\" cellspacing=\"0\" border=\"0\" align=\"center\" style=\"margin: 0px auto; mso-table-lspace: 0pt; mso-table-rspace: 0pt\"> <tbody>\n<tr> <td class=\"divider-content\" style=\"border-bottom-color: #000000; border-bottom-style: solid; border-bottom-width: 1px; border-collapse: separate; font-size: 1px; height: 1px; line-height: 1; padding: 10px 0px 0px\"> </td> </tr> <tr> <td class=\"divider-helper\" style=\"border-collapse: separate; font-size: 1px; line-height: 1; padding: 0px 0px 10px\"> </td> </tr> </tbody>\n</table> </td> </tr>\n<tr data-block-content=\"image-placeholder\" data-block-id=\"block-149695\"> <td valign=\"top\" style=\"background: #101d29 url('/public/editor/placeholder-image-icon-dcf815f9.png') no-repeat center; border-collapse: separate; max-width: 100%; padding: 50% 0px 0px; width: 100%\" bgcolor=\"#101d29\"></td> </tr>\n<tr data-block-content=\"text\" data-block-id=\"block-107236\"> <td valign=\"top\" style=\"background: transparent; border: 0px solid #000000; border-bottom-left-radius: 0px; border-bottom-right-radius: 0px; border-collapse: separate; border-top-left-radius: 0px; border-top-right-radius: 0px; color: #000001; font-family: Arial, Helvetica, sans-serif; font-size: 13px; font-style: normal; font-weight: normal; line-height: normal; padding: 0px 0px 10px; text-align: left; text-decoration: none\" align=\"left\" bgcolor=\"transparent\">\n          <p style=\"color: #000001; font-family: Arial, Helvetica, sans-serif; font-size: 13px; font-style: normal; font-weight: normal; line-height: normal; margin: 0px; padding: 0px; text-align: left; text-decoration: none\" align=\"left\">Your text goes here. Double click to edit this text.</p>\n<br>\n          <p style=\"color: #000001; font-family: Arial, Helvetica, sans-serif; font-size: 13px; font-style: normal; font-weight: normal; line-height: normal; margin: 0px; padding: 0px; text-align: left; text-decoration: none\" align=\"left\">\n            By highlighting a section of text you are able to apply styles such as \n            <b>bold</b>,\n            <i>italic</i>\n            and\n            <strike>strikethrough</strike>\n          </p>\n</td> </tr>\n<tr data-block-content=\"button\" data-block-id=\"block-952215\"> <td valign=\"top\" style=\"border-collapse: separate; padding: 0px 0px 10px\"> <table align=\"center\" border=\"0\" cellpadding=\"0\" cellspacing=\"0\" width=\"100%\" style=\"margin: 0px auto; mso-table-lspace: 0pt; mso-table-rspace: 0pt\"> <tbody>\n<tr> <td align=\"center\" valign=\"middle\" style=\"background: #505050; border: 1px solid #353535; border-bottom-left-radius: 5px; border-bottom-right-radius: 5px; border-collapse: separate; border-top-left-radius: 5px; border-top-right-radius: 5px; color: #FFFFFE; display: block; font-family: Arial, Helvetica, sans-serif; font-size: 12px; font-style: normal; font-weight: normal; line-height: normal; padding: 10px; text-align: center; text-decoration: none\" bgcolor=\"#505050\"> <a href=\"\" style=\"background: none; border: none; color: #FFFFFE; display: block; font-family: Arial, Helvetica, sans-serif; font-size: 12px; font-style: normal; font-weight: normal; line-height: normal; text-align: center; text-decoration: none; word-wrap: break-word\"><span>More info</span></a> </td> </tr> </tbody>\n</table> </td> </tr>\n</tbody> </table> </th>\n<th data-block-column=\"padding\" width=\"10\" data-block-id=\"block-923168\" style=\"font-size: 1px; height: 10px; line-height: 1px; width: 10px\"> </th>\n<th valign=\"top\" data-block-column=\"column\" data-block-id=\"block-638813\" width=\"203\" data-block-column-custom=\"\" style=\"background: #F1F1F1; border: 0px solid #000000; border-bottom-left-radius: 0px; border-bottom-right-radius: 0px; border-top-left-radius: 0px; border-top-right-radius: 0px; font-weight: normal; padding: 10px 10px 0px; vertical-align: top\" bgcolor=\"#F1F1F1\"> <table cellpadding=\"0\" cellspacing=\"0\" border=\"0\" width=\"100%\" align=\"center\" style=\"margin: 0px auto; mso-table-lspace: 0pt; mso-table-rspace: 0pt\"> <tbody>\n<tr data-block-content=\"image-placeholder\" data-block-id=\"block-808055\"> <td valign=\"top\" style=\"background: #101d29 url('/public/editor/placeholder-image-icon-dcf815f9.png') no-repeat center; border-collapse: separate; max-width: 100%; padding: 50% 0px 0px; width: 100%\" bgcolor=\"#101d29\"></td> </tr>\n<tr data-block-content=\"text\" data-block-id=\"block-909059\"> <td valign=\"top\" style=\"background: transparent; border: 0px solid #000000; border-bottom-left-radius: 0px; border-bottom-right-radius: 0px; border-collapse: separate; border-top-left-radius: 0px; border-top-right-radius: 0px; color: #000001; font-family: Arial, Helvetica, sans-serif; font-size: 13px; font-style: normal; font-weight: normal; line-height: normal; padding: 0px 0px 10px; text-align: left; text-decoration: none\" align=\"left\" bgcolor=\"transparent\">\n          <p style=\"color: #000001; font-family: Arial, Helvetica, sans-serif; font-size: 13px; font-style: normal; font-weight: normal; line-height: normal; margin: 0px; padding: 0px; text-align: left; text-decoration: none\" align=\"left\">Your text goes here. Double click to edit this text.</p>\n<br>\n          <p style=\"color: #000001; font-family: Arial, Helvetica, sans-serif; font-size: 13px; font-style: normal; font-weight: normal; line-height: normal; margin: 0px; padding: 0px; text-align: left; text-decoration: none\" align=\"left\">\n            By highlighting a section of text you are able to apply styles such as \n            <b>bold</b>,\n            <i>italic</i>\n            and\n            <strike>strikethrough</strike>\n          </p>\n</td> </tr>\n</tbody> </table> </th>\n</tr> </tbody>\n</table> </td> </tr>\n</tbody> </table> </td> </tr> </tbody> </table> </td> </tr>\n<tr data-block-panel=\"clear\" data-block-id=\"block-598571\">\n<td style=\"border-collapse: separate; padding: 0px\">\n<table cellpadding=\"0\" cellspacing=\"0\" border=\"0\" align=\"center\" class=\"container\" width=\"600\" style=\"margin: 0px auto; mso-table-lspace: 0pt; mso-table-rspace: 0pt; width: 600px\">\n<tbody>\n<tr>\n<td style=\"border: 0px solid #000000; border-collapse: separate; padding: 0px\">\n<table cellpadding=\"0\" cellspacing=\"0\" border=\"0\" align=\"center\" width=\"100%\" style=\"margin: 0px auto; mso-table-lspace: 0pt; mso-table-rspace: 0pt\">\n<tbody data-block-body=\"\">\n<tr data-block-row=\"row\" data-block-id=\"block-230687\">\n<td class=\"container-padding\" valign=\"top\" width=\"600\" style=\"background: transparent; border: 0px solid #000000; border-bottom-left-radius: 0px; border-bottom-right-radius: 0px; border-collapse: separate; border-top-left-radius: 0px; border-top-right-radius: 0px; padding: 0px\" bgcolor=\"transparent\">\n<table cellpadding=\"0\" cellspacing=\"0\" border=\"0\" width=\"100%\" style=\"margin: 0px auto; mso-table-lspace: 0pt; mso-table-rspace: 0pt\">\n<tbody>\n<tr>\n<th valign=\"top\" data-block-column=\"column\" data-block-id=\"block-864298\" width=\"600\" style=\"background: transparent; border: 0px solid #000000; border-bottom-left-radius: 0px; border-bottom-right-radius: 0px; border-top-left-radius: 0px; border-top-right-radius: 0px; font-weight: normal; padding: 0px; vertical-align: top\" bgcolor=\"transparent\">\n<table cellpadding=\"0\" cellspacing=\"0\" border=\"0\" width=\"100%\" style=\"margin: 0px auto; mso-table-lspace: 0pt; mso-table-rspace: 0pt\">\n<tbody>\n<tr data-block-content=\"text\" data-block-id=\"block-236371\">\n                     <td valign=\"top\" style=\"background: transparent; border: 0px solid #000000; border-bottom-left-radius: 0px; border-bottom-right-radius: 0px; border-collapse: separate; border-top-left-radius: 0px; border-top-right-radius: 0px; color: #000001; font-family: Arial, Helvetica, sans-serif; font-size: 13px; font-style: normal; font-weight: normal; line-height: normal; padding: 0px 0px 10px; text-align: left; text-decoration: none\" align=\"left\" bgcolor=\"transparent\">\n                       <p style=\"color: #000001; font-family: Arial, Helvetica, sans-serif; font-size: 13px; font-style: normal; font-weight: normal; line-height: normal; margin: 0px; padding: 0px; text-align: left; text-decoration: none\" align=\"left\"><span style=\"font-size: 10px\">If you liked the content of this email <a href=\"http://{~customDomain~}/_act/get_send_to_friend.php?{~mailId~}&varId={~mailVariationId~}\" target=\"_blank\" style=\"background: none; border: none; color: #0000ee; font-style: normal; font-weight: normal; text-decoration: underline; word-wrap: break-word\"> send it to a friend</a>.</span></p>\n                       <p style=\"color: #000001; font-family: Arial, Helvetica, sans-serif; font-size: 13px; font-style: normal; font-weight: normal; line-height: normal; margin: 0px; padding: 0px; text-align: left; text-decoration: none\" align=\"left\"><span style=\"font-size: 10px\"><br></span></p>\n                       <p style=\"color: #000001; font-family: Arial, Helvetica, sans-serif; font-size: 13px; font-style: normal; font-weight: normal; line-height: normal; margin: 0px; padding: 0px; text-align: left; text-decoration: none\" align=\"left\"><span style=\"font-size: 10px\"><i>[Registered company name]</i></span></p>\n                       <p style=\"color: #000001; font-family: Arial, Helvetica, sans-serif; font-size: 13px; font-style: normal; font-weight: normal; line-height: normal; margin: 0px; padding: 0px; text-align: left; text-decoration: none\" align=\"left\"><span style=\"font-size: 10px\"><i>[Registered company address]</i></span></p>\n                       <p style=\"color: #000001; font-family: Arial, Helvetica, sans-serif; font-size: 13px; font-style: normal; font-weight: normal; line-height: normal; margin: 0px; padding: 0px; text-align: left; text-decoration: none\" align=\"left\"><span style=\"font-size: 10px\"><i>[Company registration number]</i></span></p>\n                       <p style=\"color: #000001; font-family: Arial, Helvetica, sans-serif; font-size: 13px; font-style: normal; font-weight: normal; line-height: normal; margin: 0px; padding: 0px; text-align: left; text-decoration: none\" align=\"left\"><span style=\"font-size: 10px\"><i>[VAT number (optional)]</i></span></p>\n                       <p style=\"color: #000001; font-family: Arial, Helvetica, sans-serif; font-size: 13px; font-style: normal; font-weight: normal; line-height: normal; margin: 0px; padding: 0px; text-align: left; text-decoration: none\" align=\"left\"><span style=\"font-size: 10px\"><br></span></p>\n                       <p style=\"color: #000001; font-family: Arial, Helvetica, sans-serif; font-size: 13px; font-style: normal; font-weight: normal; line-height: normal; margin: 0px; padding: 0px; text-align: left; text-decoration: none\" align=\"left\"><span style=\"font-size: 10px\">If you no longer wish to receive emails, <a href=\"http://{~customDomain~}/_act/get_rcr.php?{~mailId~}\" target=\"_blank\" style=\"background: none; border: none; color: #0000ee; font-style: normal; font-weight: normal; text-decoration: underline; word-wrap: break-word\">click here</a>.</span></p>\n                     </td>\n                   </tr>\n</tbody>\n</table>\n</th>\n</tr>\n</tbody>\n</table>\n</td>\n</tr>\n</tbody>\n</table>\n</td>\n</tr>\n</tbody>\n</table>\n</td>\n</tr>\n</tbody> </table>\n  </body>\n</html>\n",
    "text": "Write a pre-header to describe the content of your message\n\nHaving problems viewing this email? View in browser ( http://{~customDomain~}/interface/external_view_email.php?{~mailId~}&varId={~mailVariationId~} ).\n\nYour text goes here. Double click to edit this text.\n\nBy highlighting a section of text you are able to\napply styles such as\nbold,\nitalic\nand\nstrikethrough\n\nMore info ( )\n\nYour text goes here. Double click to edit this text.\n\nBy highlighting a section of text you are able to\napply styles such as\nbold,\nitalic\nand\nstrikethrough\n\nMore info ( )\n\nYour text goes here. Double click to edit this text.\n\nBy highlighting a section of text you are able to\napply styles such as\nbold,\nitalic\nand\nstrikethrough\n\nIf you liked the content of this email\nsend it to a friend ( http://{~customDomain~}/_act/get_send_to_friend.php?{~mailId~}&varId={~mailVariationId~} ).\n\n[Registered company name]\n\n[Registered company address]\n\n[Company registration number]\n\n[VAT number (optional)]\n\nIf you no longer wish to receive emails,\nclick here ( http://{~customDomain~}/_act/get_rcr.php?{~mailId~} )."
  }
}
